%YAML 1.1
%TAG !u! tag:unity3d.com,2011:
--- !u!114 &11400000
MonoBehaviour:
  m_ObjectHideFlags: 0
  m_CorrespondingSourceObject: {fileID: 0}
  m_PrefabInstance: {fileID: 0}
  m_PrefabAsset: {fileID: 0}
  m_GameObject: {fileID: 0}
  m_Enabled: 1
  m_EditorHideFlags: 0
  m_Script: {fileID: 11500000, guid: 2950e58675af8a343a63a9968a30704e, type: 3}
  m_Name: PekaCharacter
  m_EditorClassIdentifier: 
  <MainCharacterPrefab>k__BackingField: {fileID: 33805172009172484, guid: a985f32c93559994cb12ecbdd7134425, type: 3}
  <MovementSettingUi>k__BackingField: {fileID: 1368623039026354600, guid: 3c5565adb263ab548a098364c802d369, type: 3}
